…
Most airports appear to have a weather station less than 5 miles away,
with two exceptions being EGE (Eagle County Regional) and HOB (Lea
County Regional), both being smaller stations unlikely to have a
dedicated NOAA station on-site. We can possibly consider this distance
to be satisfactory for our calculation purposes.

``` r
# Distance calculation results, ranked by furthest to nearest
df_neareststations %>% 
  select(IATA,NOAA_GHCN_id = id,haversine) %>% 
  arrange(desc(haversine))
```

    ## # A tibble: 58 x 3
    ## # Groups:   IATA [58]
    ##    IATA  NOAA_GHCN_id haversine
    ##    <chr> <chr>            <dbl>
    ##  1 EGE   USW00093073      9.10 
    ##  2 HOB   USC00294026      5.95 
    ##  3 HHH   USW00093831      3.18 
    ##  4 PQI   USC00176937      2.64 
    ##  5 HDN   USC00053867      2.55 
    ##  6 JAC   USC00486428      1.85 
    ##  7 SCE   USC00368449      1.52 
    ##  8 GRB   USC00473268      1.22 
    ##  9 SHV   USW00013957      1.07 
    ## 10 MAF   USW00023023      0.906
    ## # ... with 48 more rows
…
``` r
df_deice <- df_neareststations %>% 
  select(IATA,id) %>% 
  left_join(df_allstations) %>% 
  select(IATA,id,month,monthly_norm_min) %>% 
  mutate(month = month %>% as.numeric()) %>% 
  mutate(deicing_needed = ifelse(monthly_norm_min <= 35,1,0)) %>% 
  select(IATA,month,deicing_needed) 

df_deice
```

    ## # A tibble: 696 x 3
    ## # Groups:   IATA [58]
    ##    IATA  month deicing_needed
    ##    <chr> <dbl>          <dbl>
    ##  1 ABE       1              1
    ##  2 ABE       2              1
    ##  3 ABE       3              1
    ##  4 ABE       4              0
    ##  5 ABE       5              0
    ##  6 ABE       6              0
    ##  7 ABE       7              0
    ##  8 ABE       8              0
    ##  9 ABE       9              0
    ## 10 ABE      10              0
    ## # ... with 686 more rows
…
